  ___                _   _    _     _                 _ _          _   ___ ___
 / __|_ __  ___  ___| |_| |_ (_)___| |   __ _ _ _  __| (_)__ _    /_\ | _ \_ _|
 \__ \ '  \/ _ \/ _ \  _| ' \| / -_) |__/ _` | ' \/ _` | / _` |  / _ \|  _/| |
 |___/_|_|_\___/\___/\__|_||_|_\___|____\__,_|_||_\__,_|_\__,_| /_/ \_\_| |___|

${application.title} ${application.version}
Powered by Spring Boot ${spring-boot.version}
